Supplementary Note
…
Examples

The get_probe_overlaps function in the DNAmCrosshyb package can be used to check for overlapping 3-subsequences in a set of probes. Here we apply this function to the probes that were significant in the C9 EWAS. We found that all trans probes that were correlated had a >=10bp overlap with each other.

library(DNAmCrosshyb)
overlaps <- get_probe_overlaps(c(mlma_sig$Probe, mlma_oob_sig$Probe))

## Calculating overlaps..

## Done!

overlaps %>% dplyr::arrange(desc(overlaps$overlap))

## # A tibble: 1,892 x 6
##    Probe_Index Bead_Index      Probe_Target Bead_Target     overlap mismatch_pos
##    <chr>       <chr>           <chr>        <chr>             <int>        <int>
##  1 cg18002896  cg18002896_unm cg24392382   cg24392382_unm      25           13
##  2 cg24392382  cg24392382_unm cg18002896   cg18002896_unm      25           13
##  3 cg18002896  cg18002896_unm cg16517021   cg16517021_unm      24           16
##  4 cg16517021  cg16517021_unm cg18002896   cg18002896_unm      24           16
##  5 cg18002896  cg18002896_met cg16517021   cg16517021_met      24           16
##  6 cg16517021  cg16517021_met cg18002896   cg18002896_met      24           16
##  7 cg09994391  cg09994391_unm cg01587390   cg01587390_unm      21            9
##  8 cg12419491  cg12419491_unm cg01587390   cg01587390_unm      21            7
##  9 cg19403339  cg19403339_unm cg00801568   cg00801568_unm      21            9
## 10 cg19403339  cg19403339_unm cg01587390   cg01587390_unm      21           20
## #  with 1,882 more rows
…
Check for each probe with how many other probes is has a >=10bp sequence overlap.

check <- overlaps %>% dplyr::group_by(Bead_Index) %>% summarize(n = sum(overlap >= 10))

## `summarise()` ungrouping output (override with `.groups` argument)

check %>% dplyr::filter(n > 1)

## # A tibble: 34 x 2
##    Bead_Index                  n
##    <chr>                   <int>
##  1 cg00521048_methylated      16
##  2 cg00521048_unmethylated    16
##  3 cg00801568_methylated      14
##  4 cg00801568_unmethylated    14
##  5 cg01370437_methylated      16
##  6 cg01370437_unmethylated    16
##  7 cg01587390_methylated      16
##  8 cg01587390_unmethylated    16
##  9 cg09994391_methylated      14
## 10 cg09994391_unmethylated    14
## #  with 24 more rows
…
